[
  { "link": "/",     "short": "Home", "long": "Home"  },
  { "link": "/html", "short": "HTML", "long": "HTML Link" },
  { "link": "/css",  "short": "CSS",  "long": "CSS Link" },
  { "link": "/php",  "short": "PHP",  "long": "PHP Link" },
  { "link": "/javascript", "short": "Javascript", "long": "Javascript Link" }
]
